sim/run.log
Command: vcs -full64 -sverilog +v2k -timescale=1ns/1ns +notimingcheck +nospecify \
+vcs+flush+all -o simv -l compile.log -f rtl_list.f -f sim_list.f +incdir+../ssy_tb/tb \
+delay_mode_path +dump_fsdb -debug_all -P /home/synopsys/verdi/Verdi_O-2018.09-SP2/share/PLI/VCS/LINUX64/novas.tab \
/home/synopsys/verdi/Verdi_O-2018.09-SP2/share/PLI/VCS/LINUX64/pli.a -R +fsdb+autoflush \
-l run.log
                         Chronologic VCS (TM)
        Version O-2018.09-1_Full64 -- Fri Oct 10 20:12:42 2025
               Copyright (c) 1991-2018 by Synopsys Inc.
                         ALL RIGHTS RESERVED

This program is proprietary and confidential information of Synopsys Inc.
and may be used and disclosed only as authorized in a license agreement
controlling such use and disclosure.


Warning-[DEBUG_DEP] Option will be deprecated
  The option '-debug_all' will be deprecated in a future release.  Please use 
  '-debug_acc+all -debug_region+cell+encrypt' instead.

Parsing design file '../rtl/icb_unalign_bridge.sv'
Parsing design file '../tc/tb_unalign.sv'
Parsing included file '../include/icb_transaction.sv'.
Back to file '../tc/tb_unalign.sv'.
Parsing included file '../include/memory_model.sv'.
Back to file '../tc/tb_unalign.sv'.
Parsing included file '../include/Finish_task.sv'.
Back to file '../tc/tb_unalign.sv'.
Top Level Modules:
       tb_icb_unalign_bridge
TimeScale is 1 ns / 1 ns
Starting vcs inline pass...
3 modules and 0 UDP read.
recompiling module tb_icb_unalign_bridge
	However, due to incremental compilation, only 1 module needs to be compiled. 
make[1]: Entering directory '/home/ICer/ic_prjs/aiengine/icb_unalign_bridge/sim/csrc' \

rm -f _csrc*.so pre_vcsobj_*.so share_vcsobj_*.so
ld -shared  -Bsymbolic  -o .//../simv.daidir//_csrc0.so objs/amcQw_d.o 
rm -f _csrc0.so
if [ -x ../simv ]; then chmod -x ../simv; fi
g++  -o ../simv    -Wl,-rpath-link=./ -Wl,-rpath='$ORIGIN'/simv.daidir/ -Wl,-rpath=./simv.daidir/ \
-Wl,-rpath='$ORIGIN'/simv.daidir//scsim.db.dir  -rdynamic  -Wl,-rpath=/home/synopsys/vcs-mx/O-2018.09-1/linux64/lib \
-L/home/synopsys/vcs-mx/O-2018.09-1/linux64/lib     _105069_archive_1.so _prev_archive_1.so \
_csrc0.so  SIM_l.o  _csrc0.so     rmapats_mop.o rmapats.o rmar.o rmar_nd.o  rmar_llvm_0_1.o \
rmar_llvm_0_0.o          -lzerosoft_rt_stubs -lvirsim -lerrorinf -lsnpsmalloc -lvfs \
/home/synopsys/verdi/Verdi_O-2018.09-SP2/share/PLI/VCS/LINUX64/pli.a    -lvcsnew \
-lsimprofile -luclinative /home/synopsys/vcs-mx/O-2018.09-1/linux64/lib/vcs_tls.o \
-Wl,-whole-archive -lvcsucli -Wl,-no-whole-archive        _vcs_pli_stub_.o   /home/synopsys/vcs-mx/O-2018.09-1/linux64/lib/vcs_save_restore_new.o \
-ldl -lm  -lc -lpthread -ldl 
../simv up to date
make[1]: Leaving directory '/home/ICer/ic_prjs/aiengine/icb_unalign_bridge/sim/csrc' \

Command: /home/ICer/ic_prjs/aiengine/icb_unalign_bridge/sim/./simv +v2k +notimingcheck +nospecify +vcs+flush+all -a compile.log +dump_fsdb +fsdb+autoflush -a run.log
Chronologic VCS simulator copyright 1991-2018
Contains Synopsys proprietary information.
Compiler version O-2018.09-1_Full64; Runtime version O-2018.09-1_Full64;  Oct 10 20:12 2025
*Verdi* Loading libsscore_vcs201809.so
FSDB Dumper for VCS, Release Verdi_O-2018.09-SP2, Linux x86_64/64bit, 02/21/2019
(C) 1996 - 2019 by Synopsys, Inc.
*Verdi* FSDB WARNING: The FSDB file already exists. Overwriting the FSDB file may crash the programs that are using this file.
*Verdi* : Create FSDB file 'icb_bridge.fsdb'
*Verdi* : Begin traversing the scopes, layer (0).
*Verdi* : End of traversing.
*Verdi* : Begin traversing the SVA assertions, layer (0).
*Verdi* : End of traversing the SVA assertions.
*Verdi* : Begin traversing the MDAs, layer (0).
*Verdi* : Enable +mda and +packedmda dumping.
*Verdi* : End of traversing the MDAs.
*Verdi* ERROR: Cannot find class definition (tb_icb_unalign_bridge.memory_model)
*Verdi* ERROR: Cannot find class definition (tb_icb_unalign_bridge)
*Verdi* ERROR: Cannot find class definition (tb_icb_unalign_bridge.golden_mem)
*Verdi* ERROR: Cannot find class definition (tb_icb_unalign_bridge.m_mem)
 **********start simulation*******

========== DIRECT TEST CASES ==========

[TEST 1] Direct Case (B2B=0):
  [145] WRITE Transaction:
    addr=0x00001000, len=0 (beats=1)
    wdata[0]=0xdeadbeef, wmask[0]=0111
Golden Mem Updated: addr=0x00001000, data=0xdeadbeef, mask=0111
[M_MEM] Write: addr=0x00001000, data=0xdeadbeef, mask=0111

[TEST 2] Direct Case (B2B=0):
  [385]  READ Transaction:
    addr=0x00001000, len=0 (beats=1)
[INFO] Read match at 0x00001000: data=0x00adbeef

[TEST 3] Direct Case (B2B=0):
  [595] WRITE Transaction:
    addr=0x00002001, len=0 (beats=1)
    wdata[0]=0xcafebabe, wmask[0]=1101
Golden Mem Updated: addr=0x00002001, data=0xcafebabe, mask=1101
[M_MEM] Write: addr=0x00002000, data=0xfebabe00, mask=1010
[M_MEM] Write: addr=0x00002004, data=0x000000ca, mask=0001

[TEST 4] Direct Case (B2B=0):
  [825]  READ Transaction:
    addr=0x00002001, len=0 (beats=1)
[INFO] Read match at 0x00002001: data=0xcafe00be

[TEST 5] Direct Case (B2B=0):
  [1035] WRITE Transaction:
    addr=0x00003000, len=3 (beats=4)
    wdata[0]=0x11111111, wmask[0]=0111
    wdata[1]=0x22222222, wmask[1]=1011
    wdata[2]=0x33333333, wmask[2]=1101
    wdata[3]=0x44444444, wmask[3]=1100
[M_MEM] Write: addr=0x00003000, data=0x11111111, mask=0111
[M_MEM] Write: addr=0x00003004, data=0x22222222, mask=1011
[M_MEM] Write: addr=0x00003008, data=0x33333333, mask=1101
Golden Mem Updated: addr=0x00003000, data=0x11111111, mask=0111
Golden Mem Updated: addr=0x00003004, data=0x22222222, mask=1011
Golden Mem Updated: addr=0x00003008, data=0x33333333, mask=1101
Golden Mem Updated: addr=0x0000300c, data=0x44444444, mask=1100
[M_MEM] Write: addr=0x0000300c, data=0x44444444, mask=1100

========== MEMORY COMPARISON ==========

==========  Case 5 ==========

Comparing memories...
[PASS] All memory contents match!

[TEST 6] Direct Case (B2B=0):
  [2025]  READ Transaction:
    addr=0x00003000, len=3 (beats=4)
[INFO] Read match at 0x00003000: data=0x00111111
[INFO] Read match at 0x00003004: data=0x22002222
[INFO] Read match at 0x00003008: data=0x33330033
[INFO] Read match at 0x0000300c: data=0x44440000

[TEST 7] Direct Case (B2B=0):
  [2435] WRITE Transaction:
    addr=0x00004002, len=2 (beats=3)
    wdata[0]=0xaaaaaaaa, wmask[0]=1011
    wdata[1]=0xbbbbbbbb, wmask[1]=1111
    wdata[2]=0xcccccccc, wmask[2]=0001
[M_MEM] Write: addr=0x00004000, data=0xaaaa0000, mask=1100
[M_MEM] Write: addr=0x00004004, data=0xbbbbaaaa, mask=1110
Golden Mem Updated: addr=0x00004002, data=0xaaaaaaaa, mask=1011
Golden Mem Updated: addr=0x00004006, data=0xbbbbbbbb, mask=1111
Golden Mem Updated: addr=0x0000400a, data=0xcccccccc, mask=0001
[M_MEM] Write: addr=0x00004008, data=0xccccbbbb, mask=0111
[M_MEM] Write: addr=0x0000400c, data=0x0000cccc, mask=0000

[TEST 8] Direct Case (B2B=1):
  [2905] WRITE Transaction:
    addr=0x00003000, len=3 (beats=4)
    wdata[0]=0x11111111, wmask[0]=0111
    wdata[1]=0x22222222, wmask[1]=1011
    wdata[2]=0x33333333, wmask[2]=1101
    wdata[3]=0x44444444, wmask[3]=1100
[M_MEM] Write: addr=0x00003000, data=0x11111111, mask=0111
[M_MEM] Write: addr=0x00003004, data=0x22222222, mask=1011
Golden Mem Updated: addr=0x00003000, data=0x11111111, mask=0111
Golden Mem Updated: addr=0x00003004, data=0x22222222, mask=1011
Golden Mem Updated: addr=0x00003008, data=0x33333333, mask=1101
Golden Mem Updated: addr=0x0000300c, data=0x44444444, mask=1100
[M_MEM] Write: addr=0x00003008, data=0x33333333, mask=1101
[M_MEM] Write: addr=0x0000300c, data=0x44444444, mask=1100

========== MEMORY COMPARISON ==========

==========  Case 8 ==========

Comparing memories...
[PASS] All memory contents match!

[TEST 9] Direct Case (B2B=1):
  [3855]  READ Transaction:
    addr=0x00003000, len=3 (beats=4)
[INFO] Read match at 0x00003000: data=0x00111111
[INFO] Read match at 0x00003004: data=0x22002222
[INFO] Read match at 0x00003008: data=0x33330033
[INFO] Read match at 0x0000300c: data=0x44440000

[TEST 10] Direct Case (B2B=1):
  [4265] WRITE Transaction:
    addr=0x00004002, len=4 (beats=5)
    wdata[0]=0xaaaaaaaa, wmask[0]=1111
    wdata[1]=0xbbbbbbbb, wmask[1]=1000
    wdata[2]=0xcccccccc, wmask[2]=1111
    wdata[3]=0xdddddddd, wmask[3]=1001
    wdata[4]=0xeeeeeeee, wmask[4]=1011
[M_MEM] Write: addr=0x00004000, data=0xaaaa0000, mask=1100
[M_MEM] Write: addr=0x00004004, data=0xbbbbaaaa, mask=0011
[M_MEM] Write: addr=0x00004008, data=0xccccbbbb, mask=1110
Golden Mem Updated: addr=0x00004002, data=0xaaaaaaaa, mask=1111
Golden Mem Updated: addr=0x00004006, data=0xbbbbbbbb, mask=1000
Golden Mem Updated: addr=0x0000400a, data=0xcccccccc, mask=1111
Golden Mem Updated: addr=0x0000400e, data=0xdddddddd, mask=1001
Golden Mem Updated: addr=0x00004012, data=0xeeeeeeee, mask=1011
[M_MEM] Write: addr=0x0000400c, data=0xddddcccc, mask=0111
[M_MEM] Write: addr=0x00004010, data=0xeeeedddd, mask=1110
[M_MEM] Write: addr=0x00004014, data=0x0000eeee, mask=0010

[TEST 11] Direct Case (B2B=1):
  [4725]  READ Transaction:
    addr=0x00004002, len=4 (beats=5)
[INFO] Read match at 0x00004002: data=0xaaaaaaaa
[INFO] Read match at 0x00004006: data=0xbbbbbbbb
[INFO] Read match at 0x0000400a: data=0xcccccccc
[INFO] Read match at 0x0000400e: data=0xdd0000dd
[INFO] Read match at 0x00004012: data=0xee00eeee

========== WRITE-THEN-READ TESTS ==========

========== MEMORY COMPARISON ==========

==========  Case 11 ==========

Comparing memories...
[PASS] All memory contents match!

[TEST 12] Write-then-Read at 0x00005101 (B2B=0):
Golden Mem Updated: addr=0x00005101, data=0x87654321, mask=0111
[M_MEM] Write: addr=0x00005100, data=0x65432100, mask=1110
[M_MEM] Write: addr=0x00005104, data=0x00000087, mask=0000
[INFO] Read match at 0x00005101: data=0x00654321

[TEST 13] Write-then-Read at 0x00005202 (B2B=0):
Golden Mem Updated: addr=0x00005202, data=0xfedcba98, mask=0011
[M_MEM] Write: addr=0x00005200, data=0xba980000, mask=1100
[M_MEM] Write: addr=0x00005204, data=0x0000fedc, mask=0000
[INFO] Read match at 0x00005202: data=0x0000ba98

[TEST 14] Write-then-Read at 0x00005303 (B2B=0):
Golden Mem Updated: addr=0x00005303, data=0x89abcdef, mask=0001
[M_MEM] Write: addr=0x00005300, data=0xef000000, mask=1000
[M_MEM] Write: addr=0x00005304, data=0x0089abcd, mask=0000
[INFO] Read match at 0x00005303: data=0x000000ef

========== B2B BURST TESTS ==========

[TEST 15] B2B Burst WRWR at 0x00006001 (len=7, non-aligned):
[M_MEM] Write: addr=0x00006000, data=0x00000000, mask=1110
[M_MEM] Write: addr=0x00006004, data=0x00010110, mask=1111
[M_MEM] Write: addr=0x00006008, data=0x00020210, mask=1111
[M_MEM] Write: addr=0x0000600c, data=0x00030310, mask=1111
[M_MEM] Write: addr=0x00006010, data=0x00040410, mask=1111
[M_MEM] Write: addr=0x00006014, data=0x00050510, mask=1111
Golden Mem Updated: addr=0x00006001, data=0x10000000, mask=1111
Golden Mem Updated: addr=0x00006005, data=0x10000101, mask=1111
Golden Mem Updated: addr=0x00006009, data=0x10000202, mask=1111
Golden Mem Updated: addr=0x0000600d, data=0x10000303, mask=1111
Golden Mem Updated: addr=0x00006011, data=0x10000404, mask=1111
Golden Mem Updated: addr=0x00006015, data=0x10000505, mask=1111
Golden Mem Updated: addr=0x00006019, data=0x10000606, mask=1111
Golden Mem Updated: addr=0x0000601d, data=0x10000707, mask=1111
[M_MEM] Write: addr=0x00006018, data=0x00060610, mask=1111
[M_MEM] Write: addr=0x0000601c, data=0x00070710, mask=1111
[M_MEM] Write: addr=0x00006020, data=0x00000010, mask=0001
[INFO] Read match at 0x00006001: data=0x10000000
[INFO] Read match at 0x00006005: data=0x10000101
[INFO] Read match at 0x00006009: data=0x10000202
[INFO] Read match at 0x0000600d: data=0x10000303
[INFO] Read match at 0x00006011: data=0x10000404
[INFO] Read match at 0x00006015: data=0x10000505
[INFO] Read match at 0x00006019: data=0x10000606
[INFO] Read match at 0x0000601d: data=0x10000707
[M_MEM] Write: addr=0x00006100, data=0x00000000, mask=1110
[M_MEM] Write: addr=0x00006104, data=0x00101120, mask=1111
[M_MEM] Write: addr=0x00006108, data=0x00202220, mask=1111
[M_MEM] Write: addr=0x0000610c, data=0x00303320, mask=1111
[M_MEM] Write: addr=0x00006110, data=0x00404420, mask=1111
[M_MEM] Write: addr=0x00006114, data=0x00505520, mask=1111
Golden Mem Updated: addr=0x00006101, data=0x20000000, mask=1111
Golden Mem Updated: addr=0x00006105, data=0x20001011, mask=1111
Golden Mem Updated: addr=0x00006109, data=0x20002022, mask=1111
Golden Mem Updated: addr=0x0000610d, data=0x20003033, mask=1111
Golden Mem Updated: addr=0x00006111, data=0x20004044, mask=1111
Golden Mem Updated: addr=0x00006115, data=0x20005055, mask=1111
Golden Mem Updated: addr=0x00006119, data=0x20006066, mask=1111
Golden Mem Updated: addr=0x0000611d, data=0x20007077, mask=1111
[M_MEM] Write: addr=0x00006118, data=0x00606620, mask=1111
[M_MEM] Write: addr=0x0000611c, data=0x00707720, mask=1111
[INFO] B2B Burst WRWR sequence completed
[M_MEM] Write: addr=0x00006120, data=0x00000020, mask=0001
[INFO] Read match at 0x00006101: data=0x20000000
[INFO] Read match at 0x00006105: data=0x20001011
[INFO] Read match at 0x00006109: data=0x20002022
[INFO] Read match at 0x0000610d: data=0x20003033
[INFO] Read match at 0x00006111: data=0x20004044
[INFO] Read match at 0x00006115: data=0x20005055
[INFO] Read match at 0x00006119: data=0x20006066
[INFO] Read match at 0x0000611d: data=0x20007077

========== MEMORY COMPARISON ==========

==========  Case 15 ==========

Comparing memories...
[PASS] All memory contents match!

[TEST 16] B2B Burst WRWR at 0x00006102 (len=7, non-aligned):
[M_MEM] Write: addr=0x00006100, data=0x00000000, mask=1100
[M_MEM] Write: addr=0x00006104, data=0x01011000, mask=1111
[M_MEM] Write: addr=0x00006108, data=0x02021000, mask=1111
[M_MEM] Write: addr=0x0000610c, data=0x03031000, mask=1111
[M_MEM] Write: addr=0x00006110, data=0x04041000, mask=1111
[M_MEM] Write: addr=0x00006114, data=0x05051000, mask=1111
Golden Mem Updated: addr=0x00006102, data=0x10000000, mask=1111
Golden Mem Updated: addr=0x00006106, data=0x10000101, mask=1111
Golden Mem Updated: addr=0x0000610a, data=0x10000202, mask=1111
Golden Mem Updated: addr=0x0000610e, data=0x10000303, mask=1111
Golden Mem Updated: addr=0x00006112, data=0x10000404, mask=1111
Golden Mem Updated: addr=0x00006116, data=0x10000505, mask=1111
Golden Mem Updated: addr=0x0000611a, data=0x10000606, mask=1111
Golden Mem Updated: addr=0x0000611e, data=0x10000707, mask=1111
[M_MEM] Write: addr=0x00006118, data=0x06061000, mask=1111
[M_MEM] Write: addr=0x0000611c, data=0x07071000, mask=1111
[M_MEM] Write: addr=0x00006120, data=0x00001000, mask=0011
[INFO] Read match at 0x00006102: data=0x10000000
[INFO] Read match at 0x00006106: data=0x10000101
[INFO] Read match at 0x0000610a: data=0x10000202
[INFO] Read match at 0x0000610e: data=0x10000303
[INFO] Read match at 0x00006112: data=0x10000404
[INFO] Read match at 0x00006116: data=0x10000505
[INFO] Read match at 0x0000611a: data=0x10000606
[INFO] Read match at 0x0000611e: data=0x10000707
[M_MEM] Write: addr=0x00006200, data=0x00000000, mask=1100
[M_MEM] Write: addr=0x00006204, data=0x10112000, mask=1111
[M_MEM] Write: addr=0x00006208, data=0x20222000, mask=1111
[M_MEM] Write: addr=0x0000620c, data=0x30332000, mask=1111
[M_MEM] Write: addr=0x00006210, data=0x40442000, mask=1111
[M_MEM] Write: addr=0x00006214, data=0x50552000, mask=1111
Golden Mem Updated: addr=0x00006202, data=0x20000000, mask=1111
Golden Mem Updated: addr=0x00006206, data=0x20001011, mask=1111
Golden Mem Updated: addr=0x0000620a, data=0x20002022, mask=1111
Golden Mem Updated: addr=0x0000620e, data=0x20003033, mask=1111
Golden Mem Updated: addr=0x00006212, data=0x20004044, mask=1111
Golden Mem Updated: addr=0x00006216, data=0x20005055, mask=1111
Golden Mem Updated: addr=0x0000621a, data=0x20006066, mask=1111
Golden Mem Updated: addr=0x0000621e, data=0x20007077, mask=1111
[M_MEM] Write: addr=0x00006218, data=0x60662000, mask=1111
[M_MEM] Write: addr=0x0000621c, data=0x70772000, mask=1111
[INFO] B2B Burst WRWR sequence completed
[M_MEM] Write: addr=0x00006220, data=0x00002000, mask=0011
[INFO] Read match at 0x00006202: data=0x20000000
[INFO] Read match at 0x00006206: data=0x20001011
[INFO] Read match at 0x0000620a: data=0x20002022
[INFO] Read match at 0x0000620e: data=0x20003033
[INFO] Read match at 0x00006212: data=0x20004044
[INFO] Read match at 0x00006216: data=0x20005055
[INFO] Read match at 0x0000621a: data=0x20006066
[INFO] Read match at 0x0000621e: data=0x20007077

[TEST 17] B2B Burst WRWR at 0x00006203 (len=7, non-aligned):
[M_MEM] Write: addr=0x00006200, data=0x00000000, mask=1000
[M_MEM] Write: addr=0x00006204, data=0x01100000, mask=1111
[M_MEM] Write: addr=0x00006208, data=0x02100001, mask=1111
[M_MEM] Write: addr=0x0000620c, data=0x03100002, mask=1111
[M_MEM] Write: addr=0x00006210, data=0x04100003, mask=1111
[M_MEM] Write: addr=0x00006214, data=0x05100004, mask=1111
Golden Mem Updated: addr=0x00006203, data=0x10000000, mask=1111
Golden Mem Updated: addr=0x00006207, data=0x10000101, mask=1111
Golden Mem Updated: addr=0x0000620b, data=0x10000202, mask=1111
Golden Mem Updated: addr=0x0000620f, data=0x10000303, mask=1111
Golden Mem Updated: addr=0x00006213, data=0x10000404, mask=1111
Golden Mem Updated: addr=0x00006217, data=0x10000505, mask=1111
Golden Mem Updated: addr=0x0000621b, data=0x10000606, mask=1111
Golden Mem Updated: addr=0x0000621f, data=0x10000707, mask=1111
[M_MEM] Write: addr=0x00006218, data=0x06100005, mask=1111
[M_MEM] Write: addr=0x0000621c, data=0x07100006, mask=1111
[M_MEM] Write: addr=0x00006220, data=0x00100007, mask=0111
[INFO] Read match at 0x00006203: data=0x10000000
[INFO] Read match at 0x00006207: data=0x10000101
[INFO] Read match at 0x0000620b: data=0x10000202
[INFO] Read match at 0x0000620f: data=0x10000303
[INFO] Read match at 0x00006213: data=0x10000404
[INFO] Read match at 0x00006217: data=0x10000505
[INFO] Read match at 0x0000621b: data=0x10000606
[INFO] Read match at 0x0000621f: data=0x10000707
[M_MEM] Write: addr=0x00006300, data=0x00000000, mask=1000
[M_MEM] Write: addr=0x00006304, data=0x11200000, mask=1111
[M_MEM] Write: addr=0x00006308, data=0x22200010, mask=1111
[M_MEM] Write: addr=0x0000630c, data=0x33200020, mask=1111
[M_MEM] Write: addr=0x00006310, data=0x44200030, mask=1111
[M_MEM] Write: addr=0x00006314, data=0x55200040, mask=1111
Golden Mem Updated: addr=0x00006303, data=0x20000000, mask=1111
Golden Mem Updated: addr=0x00006307, data=0x20001011, mask=1111
Golden Mem Updated: addr=0x0000630b, data=0x20002022, mask=1111
Golden Mem Updated: addr=0x0000630f, data=0x20003033, mask=1111
Golden Mem Updated: addr=0x00006313, data=0x20004044, mask=1111
Golden Mem Updated: addr=0x00006317, data=0x20005055, mask=1111
Golden Mem Updated: addr=0x0000631b, data=0x20006066, mask=1111
Golden Mem Updated: addr=0x0000631f, data=0x20007077, mask=1111
[M_MEM] Write: addr=0x00006318, data=0x66200050, mask=1111
[M_MEM] Write: addr=0x0000631c, data=0x77200060, mask=1111
[INFO] B2B Burst WRWR sequence completed
[M_MEM] Write: addr=0x00006320, data=0x00200070, mask=0111
[INFO] Read match at 0x00006303: data=0x20000000
[INFO] Read match at 0x00006307: data=0x20001011
[INFO] Read match at 0x0000630b: data=0x20002022
[INFO] Read match at 0x0000630f: data=0x20003033
[INFO] Read match at 0x00006313: data=0x20004044
[INFO] Read match at 0x00006317: data=0x20005055
[INFO] Read match at 0x0000631b: data=0x20006066
[INFO] Read match at 0x0000631f: data=0x20007077

[TEST 18] B2B Burst WRWR at 0x00007001 (len=7, non-aligned):
[M_MEM] Write: addr=0x00007000, data=0x00000000, mask=1110
[M_MEM] Write: addr=0x00007004, data=0x00010110, mask=1111
[M_MEM] Write: addr=0x00007008, data=0x00020210, mask=1111
[M_MEM] Write: addr=0x0000700c, data=0x00030310, mask=1111
[M_MEM] Write: addr=0x00007010, data=0x00040410, mask=1111
[M_MEM] Write: addr=0x00007014, data=0x00050510, mask=1111
Golden Mem Updated: addr=0x00007001, data=0x10000000, mask=1111
Golden Mem Updated: addr=0x00007005, data=0x10000101, mask=1111
Golden Mem Updated: addr=0x00007009, data=0x10000202, mask=1111
Golden Mem Updated: addr=0x0000700d, data=0x10000303, mask=1111
Golden Mem Updated: addr=0x00007011, data=0x10000404, mask=1111
Golden Mem Updated: addr=0x00007015, data=0x10000505, mask=1111
Golden Mem Updated: addr=0x00007019, data=0x10000606, mask=1111
Golden Mem Updated: addr=0x0000701d, data=0x10000707, mask=1111
[M_MEM] Write: addr=0x00007018, data=0x00060610, mask=1111
[M_MEM] Write: addr=0x0000701c, data=0x00070710, mask=1111
[M_MEM] Write: addr=0x00007020, data=0x00000010, mask=0001
[INFO] Read match at 0x00007001: data=0x10000000
[INFO] Read match at 0x00007005: data=0x10000101
[INFO] Read match at 0x00007009: data=0x10000202
[INFO] Read match at 0x0000700d: data=0x10000303
[INFO] Read match at 0x00007011: data=0x10000404
[INFO] Read match at 0x00007015: data=0x10000505
[INFO] Read match at 0x00007019: data=0x10000606
[INFO] Read match at 0x0000701d: data=0x10000707
[M_MEM] Write: addr=0x00007100, data=0x00000000, mask=1110
[M_MEM] Write: addr=0x00007104, data=0x00101120, mask=1111
[M_MEM] Write: addr=0x00007108, data=0x00202220, mask=1111
[M_MEM] Write: addr=0x0000710c, data=0x00303320, mask=1111
[M_MEM] Write: addr=0x00007110, data=0x00404420, mask=1111
[M_MEM] Write: addr=0x00007114, data=0x00505520, mask=1111
Golden Mem Updated: addr=0x00007101, data=0x20000000, mask=1111
Golden Mem Updated: addr=0x00007105, data=0x20001011, mask=1111
Golden Mem Updated: addr=0x00007109, data=0x20002022, mask=1111
Golden Mem Updated: addr=0x0000710d, data=0x20003033, mask=1111
Golden Mem Updated: addr=0x00007111, data=0x20004044, mask=1111
Golden Mem Updated: addr=0x00007115, data=0x20005055, mask=1111
Golden Mem Updated: addr=0x00007119, data=0x20006066, mask=1111
Golden Mem Updated: addr=0x0000711d, data=0x20007077, mask=1111
[M_MEM] Write: addr=0x00007118, data=0x00606620, mask=1111
[M_MEM] Write: addr=0x0000711c, data=0x00707720, mask=1111
[INFO] B2B Burst WRWR sequence completed
[M_MEM] Write: addr=0x00007120, data=0x00000020, mask=0001
[INFO] Read match at 0x00007101: data=0x20000000
[INFO] Read match at 0x00007105: data=0x20001011
[INFO] Read match at 0x00007109: data=0x20002022
[INFO] Read match at 0x0000710d: data=0x20003033
[INFO] Read match at 0x00007111: data=0x20004044
[INFO] Read match at 0x00007115: data=0x20005055
[INFO] Read match at 0x00007119: data=0x20006066
[INFO] Read match at 0x0000711d: data=0x20007077

[TEST 19] Write-then-Read at 0x00005000 (B2B=0):
Golden Mem Updated: addr=0x00005000, data=0x12345678, mask=1111
[M_MEM] Write: addr=0x00005000, data=0x12345678, mask=1111
[INFO] Read match at 0x00005000: data=0x12345678

========== OUTSTANDING TESTS ==========

[DIRECTED OUTSTANDING] Pattern: WWWRRR, Base: 0x00008000, Len Queue: {0} (Size: 1)

========== [TEST 20] WWWRRR Test: 6 Outstanding Transactions ==========
[OUTSTANDING_0] WRITE: addr=0x00008000, len=0
[OUTSTANDING_1] WRITE: addr=0x00008020, len=0
[OUTSTANDING_2] WRITE: addr=0x00008040, len=0
[OUTSTANDING_3]  READ: addr=0x00008000, len=0
[OUTSTANDING_4]  READ: addr=0x00008020, len=0
[OUTSTANDING_5]  READ: addr=0x00008040, len=0
[PHASE 1] Sending all 6 CMD requests...
[PHASE 2] Sending write data...
Golden Mem Updated: addr=0x00008000, data=0x10000000, mask=1111
[CMD_SETUP_0] addr=0x00008000, time=13141 (before clk)
[CMD_AFTER_CLK_0] time=13141 (same time, reactive region)
[CMD_HANDSHAKE_0] addr=0x00008000, time=13145
[CMD_SETUP_1] addr=0x00008020, time=13146 (before clk)
[CMD_AFTER_CLK_1] time=13146 (same time, reactive region)
[CMD_HANDSHAKE_1] addr=0x00008020, time=13155
[WDATA_SENT_outstanding0.0] data=0x10000000, mask=1111
Golden Mem Updated: addr=0x00008020, data=0x10010001, mask=1111
[CMD_SETUP_2] addr=0x00008040, time=13156 (before clk)
[CMD_AFTER_CLK_2] time=13156 (same time, reactive region)
[CMD_HANDSHAKE_2] addr=0x00008040, time=13165
[M_MEM] Write: addr=0x00008000, data=0x10000000, mask=1111
[CMD_SETUP_3] addr=0x00008000, time=13166 (before clk)
[CMD_AFTER_CLK_3] time=13166 (same time, reactive region)
[CMD_HANDSHAKE_3] addr=0x00008000, time=13175
[WDATA_SENT_outstanding1.0] data=0x10010001, mask=1111
Golden Mem Updated: addr=0x00008040, data=0x10020002, mask=1111
[CMD_SETUP_4] addr=0x00008020, time=13176 (before clk)
[CMD_AFTER_CLK_4] time=13176 (same time, reactive region)
[CMD_HANDSHAKE_4] addr=0x00008020, time=13185
[M_MEM] Write: addr=0x00008020, data=0x10010001, mask=1111
[CMD_SETUP_5] addr=0x00008040, time=13186 (before clk)
[CMD_AFTER_CLK_5] time=13186 (same time, reactive region)
[CMD_HANDSHAKE_5] addr=0x00008040, time=13195
[WDATA_SENT_outstanding2.0] data=0x10020002, mask=1111
[INFO] All 6 outstanding transactions sent (CMD + WDATA)
[M_MEM] Write: addr=0x00008040, data=0x10020002, mask=1111
[INFO] Read match at 0x00008000: data=0x10000000
[INFO] Read match at 0x00008020: data=0x10010001
[INFO] Read match at 0x00008040: data=0x10020002

========== MEMORY COMPARISON ==========

========== Outstanding 20 WWWRRR ==========

Comparing memories...
[PASS] All memory contents match!

[DIRECTED OUTSTANDING] Pattern: WRWWRR, Base: 0x00008100, Len Queue: {1} (Size: 1)

========== [TEST 21] WRWWRR Test: 6 Outstanding Transactions ==========
[OUTSTANDING_0] WRITE: addr=0x00008100, len=1
[OUTSTANDING_1]  READ: addr=0x00008100, len=1
[OUTSTANDING_2] WRITE: addr=0x00008120, len=1
[OUTSTANDING_3] WRITE: addr=0x00008140, len=1
[OUTSTANDING_4]  READ: addr=0x00008120, len=1
[OUTSTANDING_5]  READ: addr=0x00008140, len=1
[PHASE 1] Sending all 6 CMD requests...
[PHASE 2] Sending write data...
Golden Mem Updated: addr=0x00008100, data=0x10000000, mask=1111
Golden Mem Updated: addr=0x00008104, data=0x10000100, mask=1111
[CMD_SETUP_0] addr=0x00008100, time=14711 (before clk)
[CMD_AFTER_CLK_0] time=14711 (same time, reactive region)
[CMD_HANDSHAKE_0] addr=0x00008100, time=14715
[CMD_SETUP_1] addr=0x00008100, time=14716 (before clk)
[CMD_AFTER_CLK_1] time=14716 (same time, reactive region)
[CMD_HANDSHAKE_1] addr=0x00008100, time=14725
[WDATA_SENT_outstanding0.0] data=0x10000000, mask=1111
[CMD_SETUP_2] addr=0x00008120, time=14726 (before clk)
[CMD_AFTER_CLK_2] time=14726 (same time, reactive region)
[CMD_HANDSHAKE_2] addr=0x00008120, time=14735
[M_MEM] Write: addr=0x00008100, data=0x10000000, mask=1111
[CMD_SETUP_3] addr=0x00008140, time=14736 (before clk)
[CMD_AFTER_CLK_3] time=14736 (same time, reactive region)
[WDATA_SENT_outstanding0.1] data=0x10000100, mask=1111
Golden Mem Updated: addr=0x00008120, data=0x10020002, mask=1111
Golden Mem Updated: addr=0x00008124, data=0x10020102, mask=1111
[CMD_HANDSHAKE_3] addr=0x00008140, time=14745
[M_MEM] Write: addr=0x00008104, data=0x10000100, mask=1111
[CMD_SETUP_4] addr=0x00008120, time=14746 (before clk)
[CMD_AFTER_CLK_4] time=14746 (same time, reactive region)
[CMD_HANDSHAKE_4] addr=0x00008120, time=14755
[CMD_SETUP_5] addr=0x00008140, time=14756 (before clk)
[CMD_AFTER_CLK_5] time=14756 (same time, reactive region)
[CMD_HANDSHAKE_5] addr=0x00008140, time=14765
[INFO] Read match at 0x00008100: data=0x10000000
[INFO] Read match at 0x00008104: data=0x10000100
[WDATA_SENT_outstanding2.0] data=0x10020002, mask=1111
[M_MEM] Write: addr=0x00008120, data=0x10020002, mask=1111
[WDATA_SENT_outstanding2.1] data=0x10020102, mask=1111
Golden Mem Updated: addr=0x00008140, data=0x10030003, mask=1111
Golden Mem Updated: addr=0x00008144, data=0x10030103, mask=1111
[M_MEM] Write: addr=0x00008124, data=0x10020102, mask=1111
[WDATA_SENT_outstanding3.0] data=0x10030003, mask=1111
[M_MEM] Write: addr=0x00008140, data=0x10030003, mask=1111
